INDEX VERSION 1.4+C:\sem\.metadata\.plugins\org.eclipse.wst.jsdt.core\indexes
2729397679.index
1660029981.index
859229262.index
1170976398.index
3362263839.index
400705442.index
160810377.index
2600552468.index
449428321.index
153350960.index
3582180528.index
2657867790.index
